Applying the BEST-COST code to German END data
…
road_long %>% 
  filter(measure=="lden") %>% 
#  filter(agglomeration==FALSE) %>% 
  {haList(.$namestadtgemeinde,.$namestadtgemeinde,.$centraldB,.$exposed)}

## # A tibble: 426 × 6
##    geo_id_aggregated erf_ci  exp_ci  exposure_name  impact impact_rounded
##    <chr>             <chr>   <chr>   <lgl>           <dbl>          <dbl>
##  1 Aarbergen         central central NA              0                  0
##  2 Abtsteinach       central central NA              0                  0
##  3 Ahnatal           central central NA              0.124              0
##  4 Alheim            central central NA              0                  0
##  5 Allendorf (Eder)  central central NA             50.9               51
##  6 Allendorf (Lumda) central central NA              0                  0
##  7 Alsbach-Hähnlein  central central NA            433.               433
##  8 Alsfeld           central central NA            635.               635
##  9 Altenstadt        central central NA            338.               338
## 10 Amöneburg         central central NA              0.124              0
## # ℹ 416 more rows

road_long %>% 
  filter(measure=="lden") %>% 
  group_by(namestadtgemeinde) %>% 
  mutate(HA=ha(centraldB,exposed)) %>% 
  select(gemeindekennziffer,namestadtgemeinde,HA) %>% 
  unique

## # A tibble: 426 × 3
## # Groups:   namestadtgemeinde [426]
##    gemeindekennziffer namestadtgemeinde      HA
##                 <dbl> <chr>               <dbl>
##  1             411000 Darmstadt         11681. 
##  2             412000 Frankfurt am Main 60212. 
##  3             413000 Offenbach am Main 10072. 
##  4             414000 Wiesbaden         25167. 
##  5             435014 Hanau              6953. 
##  6             611000 Kassel            20124. 
##  7             431001 Abtsteinach           0  
##  8             431002 Bensheim           1848. 
##  9             431003 Biblis               20.3
## 10             431004 Birkenau             67.0
## # ℹ 416 more rows
